%YAML 1.1
%TAG !u! tag:unity3d.com,2011:
--- !u!21 &2100000
Material:
  serializedVersion: 8
  m_ObjectHideFlags: 0
  m_CorrespondingSourceObject: {fileID: 0}
  m_PrefabInstance: {fileID: 0}
  m_PrefabAsset: {fileID: 0}
  m_Name: MI_Eyeslash
  m_Shader: {fileID: 4800000, guid: 4bcbb9639e2460242b97b7c83a4bbfad, type: 3}
  m_Parent: {fileID: 0}
  m_ModifiedSerializedProperties: 0
  m_ValidKeywords:
  - _ALPHATEST_ON
  - _DOUBLESIDED_ON
  - _ENABLE_FOG_ON_TRANSPARENT
  - _SURFACE_TYPE_TRANSPARENT
  m_InvalidKeywords:
  - _ADD_PRECOMPUTED_VELOCITY
  - _BLENDMODE_ALPHA
  - _DISABLE_SSR_TRANSPARENT
  - _USEBASECOLOR_ON
  - _USEFLOWMAPTEXTURE_ON
  m_LightmapFlags: 4
  m_EnableInstancingVariants: 0
  m_DoubleSidedGI: 1
  m_CustomRenderQueue: 3400
  stringTagMap:
    MotionVector: User
    RenderType: Transparent
  disabledShaderPasses:
  - TransparentBackface
  m_LockedProperties: 
  m_SavedProperties:
    serializedVersion: 3
    m_TexEnvs:
    - _Alpha:
        m_Texture: {fileID: 2800000, guid: 31189d2c87884564aad4fa59e9834cd8, type: 3}
        m_Scale: {x: 1, y: 1}
        m_Offset: {x: 0, y: 0}
    - _BaseColor:
        m_Texture: {fileID: 2800000, guid: c338c1efd3ddc7a46996d470d18d74d7, type: 3}
        m_Scale: {x: 1, y: 1}
        m_Offset: {x: 0, y: 0}
    - _BumpMap:
        m_Texture: {fileID: 0}
        m_Scale: {x: 1, y: 1}
        m_Offset: {x: 0, y: 0}
    - _Depth:
        m_Texture: {fileID: 2800000, guid: 4bd8040d2ee485d46a3ff49260789dab, type: 3}
        m_Scale: {x: 1, y: 1}
        m_Offset: {x: 0, y: 0}
    - _DetailAlbedoMap:
        m_Texture: {fileID: 0}
        m_Scale: {x: 1, y: 1}
        m_Offset: {x: 0, y: 0}
    - _DetailMask:
        m_Texture: {fileID: 0}
        m_Scale: {x: 1, y: 1}
        m_Offset: {x: 0, y: 0}
    - _DetailNormalMap:
        m_Texture: {fileID: 0}
        m_Scale: {x: 1, y: 1}
        m_Offset: {x: 0, y: 0}
    - _DyeMask:
        m_Texture: {fileID: 2800000, guid: 968f02e289b9fe94ea2326811a64fd56, type: 3}
        m_Scale: {x: 1, y: 1}
        m_Offset: {x: 0, y: 0}
    - _EmissionMap:
        m_Texture: {fileID: 0}
        m_Scale: {x: 1, y: 1}
        m_Offset: {x: 0, y: 0}
    - _FlowMap:
        m_Texture: {fileID: 2800000, guid: 4372b3bee7d5aa5409d0800eab243542, type: 3}
        m_Scale: {x: 1, y: 1}
        m_Offset: {x: 0, y: 0}
    - _HairAlpha:
        m_Texture: {fileID: 2800000, guid: 347bee86d8ff03845bfdb6e6cac93870, type: 3}
        m_Scale: {x: 1, y: 1}
        m_Offset: {x: 0, y: 0}
    - _HairBaseColor:
        m_Texture: {fileID: 2800000, guid: c338c1efd3ddc7a46996d470d18d74d7, type: 3}
        m_Scale: {x: 1, y: 1}
        m_Offset: {x: 0, y: 0}
    - _ID:
        m_Texture: {fileID: 2800000, guid: 20a2efc9274f0f74fb889f5b49be4705, type: 3}
        m_Scale: {x: 1, y: 1}
        m_Offset: {x: 0, y: 0}
    - _MainTex:
        m_Texture: {fileID: 2800000, guid: 62ce24ddd913a064cbab57b67a50aa2a, type: 3}
        m_Scale: {x: 1, y: 1}
        m_Offset: {x: 0, y: 0}
    - _MetallicGlossMap:
        m_Texture: {fileID: 0}
        m_Scale: {x: 1, y: 1}
        m_Offset: {x: 0, y: 0}
    - _NoiseMap:
        m_Texture: {fileID: 2800000, guid: 9bdaaef0b38c2da47a979e983a8dea97, type: 3}
        m_Scale: {x: 40, y: 40}
        m_Offset: {x: 0, y: 0}
    - _NoiseTexture:
        m_Texture: {fileID: 2800000, guid: dfeb1ce67808dcd4cb71e8ed64a757b1, type: 3}
        m_Scale: {x: 1, y: 1}
        m_Offset: {x: 0, y: 0}
    - _NormalTex:
        m_Texture: {fileID: 0}
        m_Scale: {x: 1, y: 1}
        m_Offset: {x: 0, y: 0}
    - _OcclusionMap:
        m_Texture: {fileID: 0}
        m_Scale: {x: 1, y: 1}
        m_Offset: {x: 0, y: 0}
    - _ParallaxMap:
        m_Texture: {fileID: 0}
        m_Scale: {x: 1, y: 1}
        m_Offset: {x: 0, y: 0}
    - _Root:
        m_Texture: {fileID: 2800000, guid: fa1e5a4030acafa4c92d12a321bf1dbf, type: 3}
        m_Scale: {x: 1, y: 1}
        m_Offset: {x: 0, y: 0}
    - _SpecularTex:
        m_Texture: {fileID: 2800000, guid: 62ce24ddd913a064cbab57b67a50aa2a, type: 3}
        m_Scale: {x: 1, y: 1}
        m_Offset: {x: 0, y: 0}
    - _TextNoise:
        m_Texture: {fileID: 2800000, guid: dfeb1ce67808dcd4cb71e8ed64a757b1, type: 3}
        m_Scale: {x: 1, y: 1}
        m_Offset: {x: 0, y: 0}
    - _texcoord:
        m_Texture: {fileID: 0}
        m_Scale: {x: 1, y: 1}
        m_Offset: {x: 0, y: 0}
    - unity_Lightmaps:
        m_Texture: {fileID: 0}
        m_Scale: {x: 1, y: 1}
        m_Offset: {x: 0, y: 0}
    - unity_LightmapsInd:
        m_Texture: {fileID: 0}
        m_Scale: {x: 1, y: 1}
        m_Offset: {x: 0, y: 0}
    - unity_ShadowMasks:
        m_Texture: {fileID: 0}
        m_Scale: {x: 1, y: 1}
        m_Offset: {x: 0, y: 0}
    m_Ints: []
    m_Floats:
    - _AddPrecomputedVelocity: 1
    - _AlphaCutoff: 0.5
    - _AlphaCutoffEnable: 1
    - _AlphaDstBlend: 10
    - _AlphaSrcBlend: 0
    - _BlendMode: 0
    - _Brighness: 0.2
    - _Brightness: 0.5
    - _BumpScale: 1
    - _Cull: 0
    - _CullMode: 0
    - _CullModeForward: 0
    - _Cutoff: 0.5
    - _DetailNormalMapScale: 1
    - _DitherBoost: 1
    - _DitherBoosts: 2.4
    - _DoubleSidedEnable: 1
    - _DoubleSidedGIMode: 0
    - _DoubleSidedNormalMode: 1
    - _DstBlend: 10
    - _Emiss: 0.3
    - _EnableBlendModePreserveSpecularLighting: 1
    - _EnableFogOnTransparent: 1
    - _Gloss: 0.901
    - _GlossMapScale: 1
    - _Glossiness: 0.5
    - _GlossyReflections: 1
    - _Metallic: 0
    - _MetallicBoost: 1.13
    - _MetallicValue: 1
    - _MipBias: -1
    - _Mode: 0
    - _NoiseTilling: 24
    - _NormalIntensity: 1
    - _OcclusionStrength: 1
    - _OpacityBoost: 3
    - _OpacityBoots: 0.2
    - _OpaqueCullMode: 2
    - _Parallax: 0.02
    - _ReceivesSSR: 1
    - _ReceivesSSRTransparent: 0
    - _RenderQueueType: 5
    - _RequireSplitLighting: 0
    - _Roughness: 1.5
    - _RoughnessRoot: 0.14
    - _RoughnessTip: 0.13
    - _SmoothnessTextureChannel: 0
    - _SpecularHighlights: 1
    - _SpecularIntensity: 1
    - _SpecularShift: 0.7
    - _SpecularTint: 2.38
    - _SrcBlend: 1
    - _StencilRef: 0
    - _StencilRefDepth: 0
    - _StencilRefDistortionVec: 4
    - _StencilRefGBuffer: 2
    - _StencilRefMV: 32
    - _StencilWriteMask: 6
    - _StencilWriteMaskDepth: 9
    - _StencilWriteMaskDistortionVec: 4
    - _StencilWriteMaskGBuffer: 15
    - _StencilWriteMaskMV: 41
    - _SupportDecals: 1
    - _SurfaceType: 1
    - _TransAmbient: 0.2
    - _TransDirect: 1
    - _TransNormalDistortion: 0.1
    - _TransScattering: 2
    - _TransShadow: 0.9
    - _Translucency: 1
    - _TransmitionPower: 0.05
    - _TransparentBackfaceEnable: 0
    - _TransparentCullMode: 2
    - _TransparentSortPriority: 0
    - _TransparentWritingMotionVec: 0
    - _TransparentZWrite: 0
    - _UVSec: 0
    - _UseBaseColor: 1
    - _UseShadowThreshold: 0
    - _ZTestDepthEqualForOpaque: 4
    - _ZTestGBuffer: 3
    - _ZTestTransparent: 4
    - _ZWrite: 0
    - __dirty: 1
    - _isDyed: 0
    - _useFlowMapTexture: 1
    m_Colors:
    - _Color: {r: 0.3018868, g: 0.22926308, b: 0.22926308, a: 1}
    - _DoubleSidedConstants: {r: 1, g: 1, b: -1, a: 0}
    - _DyedColor: {r: 1, g: 0, b: 0, a: 0}
    - _EmissionColor: {r: 1, g: 1, b: 1, a: 1}
    - _FlowTangent: {r: 0, g: 0.7781801, b: 1, a: 0.003921569}
    - _RootColor: {r: 0, g: 0, b: 0, a: 1}
    - _TangentA: {r: 0, g: 0.23670661, b: 0.8679245, a: 0.003921569}
    - _TangentB: {r: 0.4374777, g: 0.62379295, b: 0.8207547, a: 0.003921569}
    - _TangentC: {r: 0, g: 0.1543091, b: 0.5568628, a: 0.003921569}
    - _TangentD: {r: 1, g: 0.7653513, b: 0, a: 0.003921569}
    - _TipColor: {r: 0, g: 0, b: 0, a: 1}
  m_BuildTextureStacks: []
