%YAML 1.1
%TAG !u! tag:unity3d.com,2011:
--- !u!21 &2100000
Material:
  serializedVersion: 8
  m_ObjectHideFlags: 0
  m_CorrespondingSourceObject: {fileID: 0}
  m_PrefabInstance: {fileID: 0}
  m_PrefabAsset: {fileID: 0}
  m_Name: MI_FAUnderWear
  m_Shader: {fileID: 4800000, guid: defb5648a3859a84aad0a4053a6f0189, type: 3}
  m_Parent: {fileID: 0}
  m_ModifiedSerializedProperties: 0
  m_ValidKeywords:
  - _ALPHATEST_ON
  m_InvalidKeywords:
  - _ADD_PRECOMPUTED_VELOCITY
  - _DISABLE_SSR_TRANSPARENT
  - _METALLICGLOSSMAP
  - _NORMALMAP
  - _SPECGLOSSMAP
  m_LightmapFlags: 4
  m_EnableInstancingVariants: 0
  m_DoubleSidedGI: 0
  m_CustomRenderQueue: 2475
  stringTagMap:
    MotionVector: User
    RenderType: TransparentCutout
  disabledShaderPasses:
  - TransparentBackface
  m_LockedProperties: 
  m_SavedProperties:
    serializedVersion: 3
    m_TexEnvs:
    - _AO:
        m_Texture: {fileID: 2800000, guid: b7b64830f60a33d4497a8fd757221a03, type: 3}
        m_Scale: {x: 1, y: 1}
        m_Offset: {x: 0, y: 0}
    - _BC:
        m_Texture: {fileID: 2800000, guid: 83d0d5b2e8e006e499f6caff05caf75b, type: 3}
        m_Scale: {x: 1, y: 1}
        m_Offset: {x: 0, y: 0}
    - _BaseColor:
        m_Texture: {fileID: 2800000, guid: 83d0d5b2e8e006e499f6caff05caf75b, type: 3}
        m_Scale: {x: 1, y: 1}
        m_Offset: {x: 0, y: 0}
    - _BumpMap:
        m_Texture: {fileID: 2800000, guid: 74d8755f9eeb6724487711623503cdba, type: 3}
        m_Scale: {x: 1, y: 1}
        m_Offset: {x: 0, y: 0}
    - _DetailAlbedoMap:
        m_Texture: {fileID: 0}
        m_Scale: {x: 1, y: 1}
        m_Offset: {x: 0, y: 0}
    - _DetailMask:
        m_Texture: {fileID: 0}
        m_Scale: {x: 1, y: 1}
        m_Offset: {x: 0, y: 0}
    - _DetailNormalMap:
        m_Texture: {fileID: 0}
        m_Scale: {x: 1, y: 1}
        m_Offset: {x: 0, y: 0}
    - _Dirt:
        m_Texture: {fileID: 2800000, guid: 649a2cb39ab0d57449faf71063429e30, type: 3}
        m_Scale: {x: 1, y: 1}
        m_Offset: {x: 0, y: 0}
    - _EmissionMap:
        m_Texture: {fileID: 0}
        m_Scale: {x: 1, y: 1}
        m_Offset: {x: 0, y: 0}
    - _EmissiveMask:
        m_Texture: {fileID: 0}
        m_Scale: {x: 1, y: 1}
        m_Offset: {x: 0, y: 0}
    - _EmissiveMask1:
        m_Texture: {fileID: 0}
        m_Scale: {x: 1, y: 1}
        m_Offset: {x: 0, y: 0}
    - _EmissivePannerMap:
        m_Texture: {fileID: 0}
        m_Scale: {x: 1, y: 1}
        m_Offset: {x: 0, y: 0}
    - _EmissivePannerMap1:
        m_Texture: {fileID: 0}
        m_Scale: {x: 1, y: 1}
        m_Offset: {x: 0, y: 0}
    - _MainTex:
        m_Texture: {fileID: 2800000, guid: b42d8f21baf38954cb08960a254f7235, type: 3}
        m_Scale: {x: 1, y: 1}
        m_Offset: {x: 0, y: 0}
    - _Mask:
        m_Texture: {fileID: 2800000, guid: fbc7cce58e750e54ea6d04d02e2be04d, type: 3}
        m_Scale: {x: 1, y: 1}
        m_Offset: {x: 0, y: 0}
    - _Metallic:
        m_Texture: {fileID: 2800000, guid: f64a805da661c454ca086368bbbaa8b8, type: 3}
        m_Scale: {x: 1, y: 1}
        m_Offset: {x: 0, y: 0}
    - _MetallicGlossMap:
        m_Texture: {fileID: 2800000, guid: 3eb69ee7dbf784f44b8932de5bde4501, type: 3}
        m_Scale: {x: 1, y: 1}
        m_Offset: {x: 0, y: 0}
    - _Normal:
        m_Texture: {fileID: 2800000, guid: ae3f7af823668b440b4f308eeb90f1eb, type: 3}
        m_Scale: {x: 1, y: 1}
        m_Offset: {x: 0, y: 0}
    - _OcclusionMap:
        m_Texture: {fileID: 2800000, guid: 14f7e616397c10747b635b584aeb009f, type: 3}
        m_Scale: {x: 1, y: 1}
        m_Offset: {x: 0, y: 0}
    - _ParallaxMap:
        m_Texture: {fileID: 0}
        m_Scale: {x: 1, y: 1}
        m_Offset: {x: 0, y: 0}
    - _Roughness:
        m_Texture: {fileID: 2800000, guid: 6a3131d1be91eeb4c804fac98b838d8d, type: 3}
        m_Scale: {x: 1, y: 1}
        m_Offset: {x: 0, y: 0}
    - _SpecGlossMap:
        m_Texture: {fileID: 2800000, guid: 7844d013fd117874c8a0d71867630a18, type: 3}
        m_Scale: {x: 1, y: 1}
        m_Offset: {x: 0, y: 0}
    - _Texture01:
        m_Texture: {fileID: 0}
        m_Scale: {x: 1, y: 1}
        m_Offset: {x: 0, y: 0}
    - _Texture02:
        m_Texture: {fileID: 0}
        m_Scale: {x: 1, y: 1}
        m_Offset: {x: 0, y: 0}
    - _Texture03:
        m_Texture: {fileID: 0}
        m_Scale: {x: 1, y: 1}
        m_Offset: {x: 0, y: 0}
    - _Texture04:
        m_Texture: {fileID: 0}
        m_Scale: {x: 1, y: 1}
        m_Offset: {x: 0, y: 0}
    - _texcoord:
        m_Texture: {fileID: 0}
        m_Scale: {x: 1, y: 1}
        m_Offset: {x: 0, y: 0}
    - unity_Lightmaps:
        m_Texture: {fileID: 0}
        m_Scale: {x: 1, y: 1}
        m_Offset: {x: 0, y: 0}
    - unity_LightmapsInd:
        m_Texture: {fileID: 0}
        m_Scale: {x: 1, y: 1}
        m_Offset: {x: 0, y: 0}
    - unity_ShadowMasks:
        m_Texture: {fileID: 0}
        m_Scale: {x: 1, y: 1}
        m_Offset: {x: 0, y: 0}
    m_Ints: []
    m_Floats:
    - _AddPrecomputedVelocity: 1
    - _AlphaCutoff: 0.5
    - _AlphaCutoffEnable: 1
    - _AlphaDstBlend: 0
    - _AlphaSrcBlend: 1
    - _AlphaToMask: 0
    - _AlphaToMaskInspectorValue: 0
    - _BlendColorPower01: 0
    - _BlendColorPower02: 0
    - _BlendColorPower03: 0
    - _BlendColorPower04: 0
    - _BlendMode: 0
    - _BlendTexture01: 0
    - _BlendTexture02: 0
    - _BlendTexture03: 0
    - _BlendTexture04: 0
    - _BlendTextureMode: 0
    - _BumpScale: 1
    - _CullMode: 2
    - _CullModeForward: 2
    - _Cutoff: 0.5
    - _DarkMode: 0
    - _DetailNormalMapScale: 1
    - _DirtBoots: 0
    - _DirtRoughness: 0
    - _DirtRoughness_Power: 0
    - _DitherBoosts: 1
    - _DoubleSidedEnable: 0
    - _DoubleSidedGIMode: 0
    - _DoubleSidedNormalMode: 2
    - _DstBlend: 0
    - _EmissiveBoots1: 0
    - _EmissiveBoots2: 0
    - _EmissiveBoots3: 0
    - _EmissiveBoots4: 0
    - _EmissiveBoots5: 0
    - _EmissivePannerTilling: 1
    - _EmissivePannerTilling1: 1
    - _Emissivepowerboost: 100
    - _Emissivepowerboost1: 100
    - _EnableBlendModePreserveSpecularLighting: 1
    - _EnableFogOnTransparent: 1
    - _Float0: 0
    - _Float1: 0
    - _GlossMapScale: 1
    - _Glossiness: 0.5
    - _GlossyReflections: 1
    - _Metallic: 0
    - _MetallicBoots01: 0
    - _MetallicBoots02: 0
    - _MetallicBoots03: 0
    - _MetallicBoots04: 0
    - _Mode: 0
    - _OcclusionStrength: 1
    - _OpacityBoosts: 9.5
    - _OpaqueCullMode: 2
    - _Parallax: 0.02
    - _ReceivesSSR: 1
    - _ReceivesSSRTransparent: 0
    - _RenderQueueType: 1
    - _RequireSplitLighting: 0
    - _RoughnessBoost01: 0.5
    - _RoughnessBoost02: 0.5
    - _RoughnessBoost03: 0.5
    - _RoughnessBoost04: 0.5
    - _SmoothnessTextureChannel: 0
    - _SpecularHighlights: 1
    - _SrcBlend: 1
    - _StencilRef: 0
    - _StencilRefDepth: 8
    - _StencilRefDistortionVec: 4
    - _StencilRefGBuffer: 10
    - _StencilRefMV: 40
    - _StencilWriteMask: 6
    - _StencilWriteMaskDepth: 9
    - _StencilWriteMaskDistortionVec: 4
    - _StencilWriteMaskGBuffer: 15
    - _StencilWriteMaskMV: 41
    - _SupportDecals: 1
    - _SurfaceType: 0
    - _TransparentBackfaceEnable: 0
    - _TransparentCullMode: 2
    - _TransparentSortPriority: 0
    - _TransparentWritingMotionVec: 0
    - _TransparentZWrite: 1
    - _UVSec: 0
    - _UseAlphaCutOut: 0
    - _UseShadowThreshold: 0
    - _ZTestDepthEqualForOpaque: 3
    - _ZTestGBuffer: 3
    - _ZTestTransparent: 4
    - _ZWrite: 1
    - __dirty: 1
    m_Colors:
    - _BlendColor01: {r: 1, g: 1, b: 1, a: 0}
    - _BlendColor02: {r: 1, g: 1, b: 1, a: 0}
    - _BlendColor03: {r: 1, g: 1, b: 1, a: 0}
    - _BlendColor04: {r: 1, g: 1, b: 1, a: 0}
    - _Color: {r: 1, g: 1, b: 1, a: 1}
    - _DoubleSidedConstants: {r: 1, g: 1, b: -1, a: 0}
    - _EmissionColor: {r: 1, g: 1, b: 1, a: 1}
    - _EmissiveColor01: {r: 0, g: 0, b: 0, a: 0}
    - _EmissiveColor02: {r: 0, g: 0, b: 0, a: 0}
    - _EmissiveColor03: {r: 0, g: 0, b: 0, a: 0}
    - _EmissiveColor04: {r: 0, g: 0, b: 0, a: 0}
    - _EmissiveColor2: {r: 0, g: 0, b: 0, a: 0}
    - _EmissiveColor3: {r: 0, g: 0, b: 0, a: 0}
    - _EmissiveColor4: {r: 0, g: 0, b: 0, a: 0}
    - _EmissiveColor5: {r: 0, g: 0, b: 0, a: 0}
    - _PannerProperty: {r: 0, g: 0, b: 0, a: 0}
    - _PannerProperty1: {r: 0, g: 0, b: 0, a: 0}
  m_BuildTextureStacks: []
