%YAML 1.1
%TAG !u! tag:unity3d.com,2011:
--- !u!1 &6155347201791867938
GameObject:
  m_ObjectHideFlags: 0
  m_CorrespondingSourceObject: {fileID: 0}
  m_PrefabInstance: {fileID: 0}
  m_PrefabAsset: {fileID: 0}
  serializedVersion: 6
  m_Component:
  - component: {fileID: 7705501070746840920}
  - component: {fileID: 5648814405138265479}
  m_Layer: 0
  m_Name: Object_Spring
  m_TagString: Untagged
  m_Icon: {fileID: 7148428337604731935, guid: 0000000000000000d000000000000000, type: 0}
  m_NavMeshLayer: 0
  m_StaticEditorFlags: 0
  m_IsActive: 1
--- !u!4 &7705501070746840920
Transform:
  m_ObjectHideFlags: 0
  m_CorrespondingSourceObject: {fileID: 0}
  m_PrefabInstance: {fileID: 0}
  m_PrefabAsset: {fileID: 0}
  m_GameObject: {fileID: 6155347201791867938}
  serializedVersion: 2
  m_LocalRotation: {x: 0, y: 0, z: 0, w: 1}
  m_LocalPosition: {x: 1.4852399, y: 0.2882089, z: -1.9949094}
  m_LocalScale: {x: 1, y: 1, z: 1}
  m_ConstrainProportionsScale: 0
  m_Children: []
  m_Father: {fileID: 0}
  m_LocalEulerAnglesHint: {x: 0, y: 0, z: 0}
--- !u!114 &5648814405138265479
MonoBehaviour:
  m_ObjectHideFlags: 0
  m_CorrespondingSourceObject: {fileID: 0}
  m_PrefabInstance: {fileID: 0}
  m_PrefabAsset: {fileID: 0}
  m_GameObject: {fileID: 6155347201791867938}
  m_Enabled: 1
  m_EditorHideFlags: 0
  m_Script: {fileID: 11500000, guid: 1c0b0ed65d2bf684bb686ebcebba92e3, type: 3}
  m_Name: 
  m_EditorClassIdentifier: 
  mSpringDistanceMin: 1
  mSpringDistanceMax: 3
  m_ExclusionLayer:
    serializedVersion: 2
    m_Bits: 0
  _PitchAngleLimitMax: 85
  m_TurnSpeedMultiplier: 0.2
  _PitchAngleLimitMin: -85
